Advanced Topics in Data Science
…
Tidy Model Selection

Youve already seen k-means in the previous session, where you grouped listings into six clusters or types. But why six? How can you choose? Sometimes the answer comes from theory, but in many circumstances we need the data to tell us how many clusters we should use. To do this, we fit many models with different numbers of clusters to the data and compare their performance. Since this is a fit many models task, well use some familiar tools. The main difference is that now the data is living in a non-tidy format, so our workflow will be a little different.

First, lets fit 10 models for each \(k = 1,\ldots,10\).

set.seed(1236) # handle randomization
cluster_models <- data.frame(k = rep(1:10, 10)) %>% 
    group_by(k) %>% 
    mutate(kclust = map(k, ~ kmeans(prices_to_cluster, .)))
cluster_models

## Source: local data frame [100 x 2]
## Groups: k [10]
## 
##        k       kclust
##    <int>       <list>
## 1      1 <S3: kmeans>
## 2      2 <S3: kmeans>
## 3      3 <S3: kmeans>
## 4      4 <S3: kmeans>
## 5      5 <S3: kmeans>
## 6      6 <S3: kmeans>
## 7      7 <S3: kmeans>
## 8      8 <S3: kmeans>
## 9      9 <S3: kmeans>
## 10    10 <S3: kmeans>
## # ... with 90 more rows
…
Judging from this plot, it looks like we may only want 2, or at most 3 clusters  more clusters than that contribute very little to the cluster quality.

Working with a model

Now its time to explore the models weve fitted in more detail. Since weve already done 100 of them, we dont need to do another one: well just extract the predictions from each using the same function (broom::augment) that we used previously. The result should look pretty familiar by now.

cluster_preds <- cluster_models %>% 
    mutate(model_summary = map(kclust, augment, prices_to_cluster))
cluster_preds

## Source: local data frame [100 x 3]
## Groups: k [10]
## 
##        k       kclust             model_summary
##    <int>       <list>                    <list>
## 1      1 <S3: kmeans> <data.frame [1,432  31]>
## 2      2 <S3: kmeans> <data.frame [1,432  31]>
## 3      3 <S3: kmeans> <data.frame [1,432  31]>
## 4      4 <S3: kmeans> <data.frame [1,432  31]>
## 5      5 <S3: kmeans> <data.frame [1,432  31]>
## 6      6 <S3: kmeans> <data.frame [1,432  31]>
## 7      7 <S3: kmeans> <data.frame [1,432  31]>
## 8      8 <S3: kmeans> <data.frame [1,432  31]>
## 9      9 <S3: kmeans> <data.frame [1,432  31]>
## 10    10 <S3: kmeans> <data.frame [1,432  31]>
## # ... with 90 more rows
…
